mips.vcd
$date
	Sun Jul  4 01:31:28 2021
$end
$version
	Icarus Verilog
$end
$timescale
	1s
$end
$scope module testbench $end
$var wire 32 ! WriteData [31:0] $end
$var wire 1 " MemWrite $end
$var wire 32 # DataAdr [31:0] $end
$var reg 1 $ clk $end
$var reg 1 % reset $end
$scope module dut $end
$var wire 1 $ clk $end
$var wire 1 % reset $end
$var wire 32 & WriteData [31:0] $end
$var wire 32 ' ReadData [31:0] $end
$var wire 32 ( PC [31:0] $end
$var wire 1 " MemWrite $end
$var wire 32 ) Instr [31:0] $end
$var wire 32 * DataAdr [31:0] $end
$scope module arm $end
$var wire 1 $ clk $end
$var wire 1 % reset $end
$var wire 32 + WriteData [31:0] $end
$var wire 1 , RegWrite $end
$var wire 2 - RegSrc [1:0] $end
$var wire 32 . ReadData [31:0] $end
$var wire 1 / PCSrc $end
$var wire 32 0 PC [31:0] $end
$var wire 1 1 MemtoReg $end
$var wire 1 " MemWrite $end
$var wire 32 2 Instr [31:0] $end
$var wire 2 3 ImmSrc [1:0] $end
$var wire 1 4 ALUSrc $end
$var wire 32 5 ALUResult [31:0] $end
$var wire 4 6 ALUFlags [3:0] $end
$var wire 2 7 ALUControl [1:0] $end
$scope module c $end
$var wire 20 8 Instr [31:12] $end
$var wire 1 $ clk $end
$var wire 1 % reset $end
$var wire 1 , RegWrite $end
$var wire 1 9 RegW $end
$var wire 2 : RegSrc [1:0] $end
$var wire 1 / PCSrc $end
$var wire 1 ; PCS $end
$var wire 1 1 MemtoReg $end
$var wire 1 " MemWrite $end
$var wire 1 < MemW $end
$var wire 2 = ImmSrc [1:0] $end
$var wire 2 > FlagW [1:0] $end
$var wire 1 4 ALUSrc $end
$var wire 4 ? ALUFlags [3:0] $end
$var wire 2 @ ALUControl [1:0] $end
$scope module cl $end
$var wire 4 A Cond [3:0] $end
$var wire 2 B FlagWrite [1:0] $end
$var wire 1 " MemWrite $end
$var wire 1 / PCSrc $end
$var wire 1 , RegWrite $end
$var wire 1 $ clk $end
$var wire 1 % reset $end
$var wire 1 9 RegW $end
$var wire 1 ; PCS $end
$var wire 1 < MemW $end
$var wire 4 C Flags [3:0] $end
$var wire 2 D FlagW [1:0] $end
$var wire 1 E CondEx $end
$var wire 4 F ALUFlags [3:0] $end
$scope module cc $end
$var wire 4 G Cond [3:0] $end
$var wire 4 H Flags [3:0] $end
$var wire 1 I ge $end
$var wire 1 J zero $end
$var wire 1 K overflow $end
$var wire 1 L neg $end
$var wire 1 M carry $end
$var reg 1 E CondEx $end
$upscope $end
$scope module flagreg0 $end
$var wire 1 $ clk $end
$var wire 2 N d [1:0] $end
$var wire 1 O en $end
$var wire 1 % reset $end
$var reg 2 P q [1:0] $end
$upscope $end
$scope module flagreg1 $end
$var wire 1 $ clk $end
$var wire 2 Q d [1:0] $end
$var wire 1 R en $end
$var wire 1 % reset $end
$var reg 2 S q [1:0] $end
$upscope $end
$upscope $end
$scope module dec $end
$var wire 6 T Funct [5:0] $end
$var wire 2 U Op [1:0] $end
$var wire 1 ; PCS $end
$var wire 4 V Rd [3:0] $end
$var wire 1 9 RegW $end
$var wire 2 W RegSrc [1:0] $end
$var wire 1 1 MemtoReg $end
$var wire 1 < MemW $end
$var wire 2 X ImmSrc [1:0] $end
$var wire 1 Y Branch $end
$var wire 1 4 ALUSrc $end
$var wire 1 Z ALUOp $end
$var reg 2 [ ALUControl [1:0] $end
$var reg 2 \ FlagW [1:0] $end
$var reg 10 ] controls [9:0] $end
$upscope $end
$upscope $end
$scope module dp $end
$var wire 2 ^ ALUControl [1:0] $end
$var wire 1 4 ALUSrc $end
$var wire 2 _ ImmSrc [1:0] $end
$var wire 1 1 MemtoReg $end
$var wire 1 / PCSrc $end
$var wire 2 ` RegSrc [1:0] $end
$var wire 1 , RegWrite $end
$var wire 1 $ clk $end
$var wire 1 % reset $end
$var wire 32 a WriteData [31:0] $end
$var wire 32 b SrcB [31:0] $end
$var wire 32 c SrcA [31:0] $end
$var wire 32 d Result [31:0] $end
$var wire 32 e ReadData [31:0] $end
$var wire 4 f RA2 [3:0] $end
$var wire 4 g RA1 [3:0] $end
$var wire 32 h PCPlus8 [31:0] $end
$var wire 32 i PCPlus4 [31:0] $end
$var wire 32 j PCNext [31:0] $end
$var wire 32 k PC [31:0] $end
$var wire 32 l Instr [31:0] $end
$var wire 32 m ExtImm [31:0] $end
$var wire 32 n ALUResult [31:0] $end
$var wire 4 o ALUFlags [3:0] $end
$scope module alu $end
$var wire 2 p ALUControl [1:0] $end
$var wire 1 q Carry $end
$var wire 1 r oVerflow $end
$var wire 1 s Zero $end
$var wire 32 t SrcB [31:0] $end
$var wire 32 u SrcA [31:0] $end
$var wire 1 v Negative $end
$var wire 32 w ALUResult [31:0] $end
$var wire 4 x ALUFlags [3:0] $end
$var reg 33 y tmp [32:0] $end
$upscope $end
$scope module ext $end
$var wire 2 z ImmSrc [1:0] $end
$var wire 24 { Instr [23:0] $end
$var reg 32 | ExtImm [31:0] $end
$upscope $end
$scope module pcadd1 $end
$var wire 32 } b [31:0] $end
$var wire 32 ~ y [31:0] $end
$var wire 32 !" a [31:0] $end
$upscope $end
$scope module pcadd2 $end
$var wire 32 "" a [31:0] $end
$var wire 32 #" b [31:0] $end
$var wire 32 $" y [31:0] $end
$upscope $end
$scope module pcmux $end
$var wire 32 %" d0 [31:0] $end
$var wire 1 / s $end
$var wire 32 &" y [31:0] $end
$var wire 32 '" d1 [31:0] $end
$upscope $end
$scope module pcreg $end
$var wire 1 $ clk $end
$var wire 32 (" d [31:0] $end
$var wire 1 % reset $end
$var reg 32 )" q [31:0] $end
$upscope $end
$scope module ra1mux $end
$var wire 4 *" d0 [3:0] $end
$var wire 4 +" d1 [3:0] $end
$var wire 1 ," s $end
$var wire 4 -" y [3:0] $end
$upscope $end
$scope module ra2mux $end
$var wire 4 ." d0 [3:0] $end
$var wire 4 /" d1 [3:0] $end
$var wire 1 0" s $end
$var wire 4 1" y [3:0] $end
$upscope $end
$scope module resmux $end
$var wire 32 2" d0 [31:0] $end
$var wire 1 1 s $end
$var wire 32 3" y [31:0] $end
$var wire 32 4" d1 [31:0] $end
$upscope $end
$scope module rf $end
$var wire 1 $ clk $end
$var wire 32 5" r15 [31:0] $end
$var wire 4 6" ra1 [3:0] $end
$var wire 4 7" ra2 [3:0] $end
$var wire 4 8" wa3 [3:0] $end
$var wire 32 9" wd3 [31:0] $end
$var wire 1 , we3 $end
$var wire 32 :" rd2 [31:0] $end
$var wire 32 ;" rd1 [31:0] $end
$upscope $end
$scope module srcbmux $end
$var wire 32 <" d0 [31:0] $end
$var wire 32 =" d1 [31:0] $end
$var wire 1 4 s $end
$var wire 32 >" y [31:0] $end
$upscope $end
$upscope $end
$upscope $end
$scope module dmem $end
$var wire 32 ?" a [31:0] $end
$var wire 1 $ clk $end
$var wire 32 @" rd [31:0] $end
$var wire 32 A" wd [31:0] $end
$var wire 1 " we $end
$upscope $end
$scope module imem $end
$var wire 32 B" a [31:0] $end
$var wire 32 C" rd [31:0] $end
$upscope $end
$upscope $end
$upscope $end
$enddefinitions $end
#0
$dumpvars
b11100000010011110000000000001111 C"
b0 B"
b1000 A"
bx @"
b0 ?"
b1000 >"
b1111 ="
b1000 <"
b1000 ;"
b1000 :"
b0 9"
b0 8"
b1111 7"
b1111 6"
b1000 5"
bx 4"
b0 3"
b0 2"
b1111 1"
00"
b0 /"
b1111 ."
b1111 -"
0,"
b1111 +"
b1111 *"
b0 )"
b100 ("
b0 '"
b100 &"
b100 %"
b1000 $"
b100 #"
b100 ""
b0 !"
b100 ~
b100 }
b1111 |
b10011110000000000001111 {
b0 z
b0 y
b100 x
b0 w
0v
b1000 u
b1000 t
1s
0r
0q
b1 p
b100 o
b0 n
b1111 m
b11100000010011110000000000001111 l
b0 k
b100 j
b100 i
b1000 h
b1111 g
b1111 f
bx e
b0 d
b1000 c
b1000 b
b1000 a
b0 `
b0 _
b1 ^
b1001 ]
b0 \
b1 [
1Z
0Y
b0 X
b0 W
b0 V
b0 U
b100 T
b0 S
0R
b1 Q
b0 P
0O
b0 N
0M
0L
0K
0J
1I
b0 H
b1110 G
b100 F
1E
b0 D
b0 C
b0 B
b1110 A
b1 @
b100 ?
b0 >
b0 =
0<
0;
b0 :
19
b11100000010011110000 8
b1 7
b100 6
b0 5
04
b0 3
b11100000010011110000000000001111 2
01
b0 0
0/
bx .
b0 -
1,
b1000 +
b0 *
b11100000010011110000000000001111 )
b0 (
bx '
b1000 &
1%
1$
b0 #
0"
b1000 !
$end
#5
0$
#10
1$
#15
0$
#20
1$
#22
0%
#25
0$
#30
b0 Q
b101 d
b101 '"
b101 3"
b101 9"
b0 6
b0 ?
b0 F
b0 o
b0 x
0s
b101 #
b101 *
b101 5
b101 n
b101 w
b101 2"
b101 ?"
b101 y
14
b0 7
b0 @
b0 [
b0 ^
b0 p
b101001 ]
b101 m
b101 |
b101 ="
b101 f
b101 1"
b101 7"
b0 g
b0 -"
b0 6"
b101000 T
b10 V
b100000000010000000000101 {
b10 8"
b10 /"
b101 ."
b0 *"
b11100010100000000010 8
b101 b
b101 t
b101 >"
b11100010100000000010000000000101 )
b11100010100000000010000000000101 2
b11100010100000000010000000000101 l
b11100010100000000010000000000101 C"
b0 c
b0 u
b0 ;"
bx !
bx &
bx +
bx a
bx :"
bx <"
bx A"
b1000 j
b1000 &"
b1000 ("
b1100 h
b1100 $"
b1100 5"
b1000 i
b1000 ~
b1000 ""
b1000 %"
b100 (
b100 0
b100 k
b100 !"
b100 )"
b100 B"
1$
#35
0$
#40
b1100 d
b1100 '"
b1100 3"
b1100 9"
b1100 #
b1100 *
b1100 5
b1100 n
b1100 w
b1100 2"
b1100 ?"
b1100 y
b1100 b
b1100 t
b1100 >"
b1100 m
b1100 |
b1100 ="
b1100 f
b1100 1"
b1100 7"
b11 V
b100000000011000000001100 {
b11 8"
b11 /"
b1100 ."
b11100010100000000011 8
b11100010100000000011000000001100 )
b11100010100000000011000000001100 2
b11100010100000000011000000001100 l
b11100010100000000011000000001100 C"
b1100 j
b1100 &"
b1100 ("
b10000 h
b10000 $"
b10000 5"
b1100 i
b1100 ~
b1100 ""
b1100 %"
b1000 (
b1000 0
b1000 k
b1000 !"
b1000 )"
b1000 B"
1$
#45
0$
#50
b11 d
b11 '"
b11 3"
b11 9"
b11 #
b11 *
b11 5
b11 n
b11 w
b11 2"
b11 ?"
b11 y
b1001 b
b1001 t
b1001 >"
b1100 c
b1100 u
b1100 ;"
b1 7
b1 @
b1 [
b1 ^
b1 p
b1001 m
b1001 |
b1001 ="
b1001 f
b1001 1"
b1001 7"
b11 g
b11 -"
b11 6"
b100100 T
b111 V
b10000110111000000001001 {
b111 8"
b111 /"
b1001 ."
b11 *"
b11100010010000110111 8
b11100010010000110111000000001001 )
b11100010010000110111000000001001 2
b11100010010000110111000000001001 l
b11100010010000110111000000001001 C"
b10000 j
b10000 &"
b10000 ("
b10100 h
b10100 $"
b10100 5"
b10000 i
b10000 ~
b10000 ""
b10000 %"
b1100 (
b1100 0
b1100 k
b1100 !"
b1100 )"
b1100 B"
1$
#55
0$
#60
b101 d
b101 '"
b101 3"
b101 9"
b101 #
b101 *
b101 5
b101 n
b101 w
b101 2"
b101 ?"
b101 y
04
b101 b
b101 t
b101 >"
b101 !
b101 &
b101 +
b101 a
b101 :"
b101 <"
b101 A"
b11 c
b11 u
b11 ;"
b11 7
b11 @
b11 [
b11 ^
b11 p
b1001 ]
b10 m
b10 |
b10 ="
b10 f
b10 1"
b10 7"
b111 g
b111 -"
b111 6"
b11000 T
b100 V
b100001110100000000000010 {
b100 8"
b100 /"
b10 ."
b111 *"
b11100001100001110100 8
b11100001100001110100000000000010 )
b11100001100001110100000000000010 2
b11100001100001110100000000000010 l
b11100001100001110100000000000010 C"
b10100 j
b10100 &"
b10100 ("
b11000 h
b11000 $"
b11000 5"
b10100 i
b10100 ~
b10100 ""
b10100 %"
b10000 (
b10000 0
b10000 k
b10000 !"
b10000 )"
b10000 B"
1$
#65
0$
#70
b100 d
b100 '"
b100 3"
b100 9"
b100 #
b100 *
b100 5
b100 n
b100 w
b100 2"
b100 ?"
b100 y
b1100 c
b1100 u
b1100 ;"
b10 7
b10 @
b10 [
b10 ^
b10 p
b100 m
b100 |
b100 ="
b100 f
b100 1"
b100 7"
b11 g
b11 -"
b11 6"
b0 T
b101 V
b110101000000000100 {
b101 8"
b101 /"
b100 ."
b11 *"
b11100000000000110101 8
b11100000000000110101000000000100 )
b11100000000000110101000000000100 2
b11100000000000110101000000000100 l
b11100000000000110101000000000100 C"
b11000 j
b11000 &"
b11000 ("
b11100 h
b11100 $"
b11100 5"
b11000 i
b11000 ~
b11000 ""
b11000 %"
b10100 (
b10100 0
b10100 k
b10100 !"
b10100 )"
b10100 B"
1$
#75
0$
#80
b1001 d
b1001 '"
b1001 3"
b1001 9"
b1001 #
b1001 *
b1001 5
b1001 n
b1001 w
b1001 2"
b1001 ?"
b1001 y
b100 c
b100 u
b100 ;"
b0 7
b0 @
b0 [
b0 ^
b0 p
b101 g
b101 -"
b101 6"
b1000 T
b100001010101000000000100 {
b101 *"
b11100000100001010101 8
b11100000100001010101000000000100 )
b11100000100001010101000000000100 2
b11100000100001010101000000000100 l
b11100000100001010101000000000100 C"
b11100 j
b11100 &"
b11100 ("
b100000 h
b100000 $"
b100000 5"
b11100 i
b11100 ~
b11100 ""
b11100 %"
b11000 (
b11000 0
b11000 k
b11000 !"
b11000 )"
b11000 B"
1$
#85
0$
#90
b110 d
b110 '"
b110 3"
b110 9"
b110 #
b110 *
b110 5
b110 n
b110 w
b110 2"
b110 ?"
b110 y
1R
1O
b11 b
b11 t
b11 >"
b11 B
b11 !
b11 &
b11 +
b11 a
b11 :"
b11 <"
b11 A"
b11 >
b11 D
b11 \
b1 7
b1 @
b1 [
b1 ^
b1 p
b111 m
b111 |
b111 ="
b111 f
b111 1"
b111 7"
b101 T
b1000 V
b10101011000000000000111 {
b1000 8"
b1000 /"
b111 ."
b11100000010101011000 8
b11100000010101011000000000000111 )
b11100000010101011000000000000111 2
b11100000010101011000000000000111 l
b11100000010101011000000000000111 C"
b100000 j
b100000 &"
b100000 ("
b1001 c
b1001 u
b1001 ;"
b100100 h
b100100 $"
b100100 5"
b100000 i
b100000 ~
b100000 ""
b100000 %"
b11100 (
b11100 0
b11100 k
b11100 !"
b11100 )"
b11100 B"
1$
#95
0$
#100
b1011000 d
b1011000 '"
b1011000 3"
b1011000 9"
b1011000 #
b1011000 *
b1011000 5
b1011000 n
b1011000 w
b1011000 2"
b1011000 ?"
b1011000 y
1,"
1;
0R
0O
b110000 b
b110000 t
b110000 >"
b1 -
b1 :
b1 W
b1 `
b10 3
b10 =
b10 X
b10 _
b10 z
14
09
1Y
0Z
b0 B
0,
bx !
bx &
bx +
bx a
bx :"
bx <"
bx A"
b101000 c
b101000 u
b101000 ;"
b0 >
b0 D
b0 \
b0 7
b0 @
b0 [
b0 ^
b0 p
b110100010 ]
0E
b110000 m
b110000 |
b110000 ="
b1100 f
b1100 1"
b1100 7"
b1111 g
b1111 -"
b1111 6"
b10 U
b100000 T
b0 V
b0 A
b0 G
b1100 {
b0 8"
b0 /"
b1100 ."
b0 *"
b1010000000000000 8
b1010000000000000000000001100 )
b1010000000000000000000001100 2
b1010000000000000000000001100 l
b1010000000000000000000001100 C"
b100100 j
b100100 &"
b100100 ("
b101000 h
b101000 $"
b101000 5"
b100100 i
b100100 ~
b100100 ""
b100100 %"
b100000 (
b100000 0
b100000 k
b100000 !"
b100000 )"
b100000 B"
1$
#105
0$
#110
b111 d
b111 '"
b111 3"
b111 9"
b111 #
b111 *
b111 5
b111 n
b111 w
b111 2"
b111 ?"
b111 y
1R
1O
b11 g
b11 -"
b11 6"
b11 B
0,"
1,
0;
b11 >
b11 D
b11 \
b1 7
b1 @
b1 [
b1 ^
b1 p
b0 -
b0 :
b0 W
b0 `
b0 3
b0 =
b0 X
b0 _
b0 z
04
19
0Y
1Z
0/
b101 b
b101 t
b101 >"
b101 !
b101 &
b101 +
b101 a
b101 :"
b101 <"
b101 A"
b1001 ]
1E
b100 m
b100 |
b100 ="
b100 f
b100 1"
b100 7"
b0 U
b101 T
b1000 V
b1110 A
b1110 G
b10100111000000000000100 {
b1000 8"
b1000 /"
b100 ."
b11 *"
b11100000010100111000 8
b11100000010100111000000000000100 )
b11100000010100111000000000000100 2
b11100000010100111000000000000100 l
b11100000010100111000000000000100 C"
b1100 c
b1100 u
b1100 ;"
b101000 j
b101000 &"
b101000 ("
b101100 h
b101100 $"
b101100 5"
b101000 i
b101000 ~
b101000 ""
b101000 %"
b100100 (
b100100 0
b100100 k
b100100 !"
b100100 )"
b100100 B"
1$
#115
0$
#120
b110000 d
b110000 '"
b110000 3"
b110000 9"
b110000 #
b110000 *
b110000 5
b110000 n
b110000 w
b110000 2"
b110000 ?"
b110000 y
1/
0R
0O
1,"
0,
1;
b0 b
b0 t
b0 >"
b0 B
b1 -
b1 :
b1 W
b1 `
b10 3
b10 =
b10 X
b10 _
b10 z
14
09
1Y
0Z
b0 !
b0 &
b0 +
b0 a
b0 :"
b0 <"
b0 A"
b110000 c
b110000 u
b110000 ;"
b0 >
b0 D
b0 \
b0 7
b0 @
b0 [
b0 ^
b0 p
b110100010 ]
b0 m
b0 |
b0 ="
b0 f
b0 1"
b0 7"
b1111 g
b1111 -"
b1111 6"
b10 U
b100000 T
b0 V
b1010 A
b1010 G
b0 {
b0 8"
b0 /"
b0 ."
b0 *"
b10101010000000000000 8
b10101010000000000000000000000000 )
b10101010000000000000000000000000 2
b10101010000000000000000000000000 l
b10101010000000000000000000000000 C"
b110000 j
b110000 &"
b110000 ("
b110000 h
b110000 $"
b110000 5"
b101100 i
b101100 ~
b101100 ""
b101100 %"
b101000 (
b101000 0
b101000 k
b101000 !"
b101000 )"
b101000 B"
1$
#125
0$
#130
b10 N
b10 6
b10 ?
b10 F
b10 o
b10 x
1q
b11111111111111111111111111111110 d
b11111111111111111111111111111110 '"
b11111111111111111111111111111110 3"
b11111111111111111111111111111110 9"
b11111111111111111111111111111110 #
b11111111111111111111111111111110 *
b11111111111111111111111111111110 5
b11111111111111111111111111111110 n
b11111111111111111111111111111110 w
b11111111111111111111111111111110 2"
b11111111111111111111111111111110 ?"
b111111111111111111111111111111110 y
b110100 j
b110100 &"
b110100 ("
1R
1O
b111 g
b111 -"
b111 6"
0/
b11 B
0,"
1,
0;
b11 >
b11 D
b11 \
b1 7
b1 @
b1 [
b1 ^
b1 p
b0 -
b0 :
b0 W
b0 `
b0 3
b0 =
b0 X
b0 _
b0 z
04
19
0Y
1Z
b101 b
b101 t
b101 >"
b101 !
b101 &
b101 +
b101 a
b101 :"
b101 <"
b101 A"
b1001 ]
b10 m
b10 |
b10 ="
b10 f
b10 1"
b10 7"
b0 U
b101 T
b1000 V
b1110 A
b1110 G
b10101111000000000000010 {
b1000 8"
b1000 /"
b10 ."
b111 *"
b11100000010101111000 8
b11100000010101111000000000000010 )
b11100000010101111000000000000010 2
b11100000010101111000000000000010 l
b11100000010101111000000000000010 C"
b11 c
b11 u
b11 ;"
b111000 h
b111000 $"
b111000 5"
b110100 i
b110100 ~
b110100 ""
b110100 %"
b110000 (
b110000 0
b110000 k
b110000 !"
b110000 )"
b110000 B"
1$
#135
0$
#140
b1010 d
b1010 '"
b1010 3"
b1010 9"
0q
b1010 #
b1010 *
b1010 5
b1010 n
b1010 w
b1010 2"
b1010 ?"
b1010 y
b0 N
b0 6
b0 ?
b0 F
b0 o
b0 x
0r
0R
0O
b1 b
b1 t
b1 >"
14
b0 B
0,
bx !
bx &
bx +
bx a
bx :"
bx <"
bx A"
b1001 c
b1001 u
b1001 ;"
b0 >
b0 D
b0 \
b0 7
b0 @
b0 [
b0 ^
b0 p
b101001 ]
0E
b1 m
b1 |
b1 ="
b1 f
b1 1"
b1 7"
b101 g
b101 -"
b101 6"
b101000 T
b111 V
b1011 A
b1011 G
b100001010111000000000001 {
b111 8"
b111 /"
b1 ."
b101 *"
b10110010100001010111 8
1M
b10110010100001010111000000000001 )
b10110010100001010111000000000001 2
b10110010100001010111000000000001 l
b10110010100001010111000000000001 C"
b111000 j
b111000 &"
b111000 ("
b10 C
b10 H
b10 P
b111100 h
b111100 $"
b111100 5"
b111000 i
b111000 ~
b111000 ""
b111000 %"
b110100 (
b110100 0
b110100 k
b110100 !"
b110100 )"
b110100 B"
1$
#145
0$
#150
b10 N
b10 6
b10 ?
b10 F
b10 o
b10 x
1q
b11111111111111111111111111111110 d
b11111111111111111111111111111110 '"
b11111111111111111111111111111110 3"
b11111111111111111111111111111110 9"
b11111111111111111111111111111110 #
b11111111111111111111111111111110 *
b11111111111111111111111111111110 5
b11111111111111111111111111111110 n
b11111111111111111111111111111110 w
b11111111111111111111111111111110 2"
b11111111111111111111111111111110 ?"
b111111111111111111111111111111110 y
04
1,
b101 b
b101 t
b101 >"
b101 !
b101 &
b101 +
b101 a
b101 :"
b101 <"
b101 A"
b11 c
b11 u
b11 ;"
b1 7
b1 @
b1 [
b1 ^
b1 p
b1001 ]
1E
b10 m
b10 |
b10 ="
b10 f
b10 1"
b10 7"
b111 g
b111 -"
b111 6"
b100 T
b1110 A
b1110 G
b10001110111000000000010 {
b10 ."
b111 *"
b11100000010001110111 8
b11100000010001110111000000000010 )
b11100000010001110111000000000010 2
b11100000010001110111000000000010 l
b11100000010001110111000000000010 C"
b111100 j
b111100 &"
b111100 ("
b1000000 h
b1000000 $"
b1000000 5"
b111100 i
b111100 ~
b111100 ""
b111100 %"
b111000 (
b111000 0
b111000 k
b111000 !"
b111000 )"
b111000 B"
1$
#155
0$
#160
b1100000 #
b1100000 *
b1100000 5
b1100000 n
b1100000 w
b1100000 2"
b1100000 ?"
b1100000 y
0r
b0 N
b11111111111111111111111111111110 !
b11111111111111111111111111111110 &
b11111111111111111111111111111110 +
b11111111111111111111111111111110 a
b11111111111111111111111111111110 :"
b11111111111111111111111111111110 <"
b11111111111111111111111111111110 A"
b0 6
b0 ?
b0 F
b0 o
b0 x
0q
10"
b1010100 b
b1010100 t
b1010100 >"
bx d
bx '"
bx 3"
bx 9"
0,
1"
b10 -
b10 :
b10 W
b10 `
b1 3
b1 =
b1 X
b1 _
b1 z
14
11
09
1<
0Z
b0 7
b0 @
b0 [
b0 ^
b0 p
b1001110100 ]
b1010100 m
b1010100 |
b1010100 ="
b111 f
b111 1"
b111 7"
b11 g
b11 -"
b11 6"
b1 U
b11000 T
b100000110111000001010100 {
b100 ."
b11 *"
b11100101100000110111 8
b11100101100000110111000001010100 )
b11100101100000110111000001010100 2
b11100101100000110111000001010100 l
b11100101100000110111000001010100 C"
b1000000 j
b1000000 &"
b1000000 ("
b1100 c
b1100 u
b1100 ;"
b1000100 h
b1000100 $"
b1000100 5"
b1000000 i
b1000000 ~
b1000000 ""
b1000000 %"
b111100 (
b111100 0
b111100 k
b111100 !"
b111100 )"
b111100 B"
1$
#165
0$
#170
00"
1,
0"
b0 -
b0 :
b0 W
b0 `
19
0<
b1100000 b
b1100000 t
b1100000 >"
b0 !
b0 &
b0 +
b0 a
b0 :"
b0 <"
b0 A"
b0 c
b0 u
b0 ;"
b1111000 ]
b1100000 m
b1100000 |
b1100000 ="
b0 f
b0 1"
b0 7"
b0 g
b0 -"
b0 6"
b11001 T
b10 V
b100100000010000001100000 {
b10 8"
b10 /"
b0 ."
b0 *"
b11100101100100000010 8
b11100101100100000010000001100000 )
b11100101100100000010000001100000 2
b11100101100100000010000001100000 l
b11100101100100000010000001100000 C"
b1000100 j
b1000100 &"
b1000100 ("
b11111111111111111111111111111110 d
b11111111111111111111111111111110 '"
b11111111111111111111111111111110 3"
b11111111111111111111111111111110 9"
b1001000 h
b1001000 $"
b1001000 5"
b1000100 i
b1000100 ~
b1000100 ""
b1000100 %"
b1000000 (
b1000000 0
b1000000 k
b1000000 !"
b1000000 )"
b1000000 B"
b11111111111111111111111111111110 '
b11111111111111111111111111111110 .
b11111111111111111111111111111110 e
b11111111111111111111111111111110 4"
b11111111111111111111111111111110 @"
1$
#175
0$
#180
bx '
bx .
bx e
bx 4"
bx @"
b1001100 #
b1001100 *
b1001100 5
b1001100 n
b1001100 w
b1001100 2"
b1001100 ?"
b1001100 y
b1001100 d
b1001100 '"
b1001100 3"
b1001100 9"
1/
b0 3
b0 =
b0 X
b0 _
b0 z
04
01
1Z
1;
b0 b
b0 t
b0 >"
b1001100 c
b1001100 u
b1001100 ;"
b1001 ]
b0 m
b0 |
b0 ="
b1111 g
b1111 -"
b1111 6"
b0 U
b1000 T
b1111 V
b100011111111000000000000 {
b1111 8"
b1111 /"
b1111 *"
b11100000100011111111 8
b11100000100011111111000000000000 )
b11100000100011111111000000000000 2
b11100000100011111111000000000000 l
b11100000100011111111000000000000 C"
b1001100 j
b1001100 &"
b1001100 ("
b1001100 h
b1001100 $"
b1001100 5"
b1001000 i
b1001000 ~
b1001000 ""
b1001000 %"
b1000100 (
b1000100 0
b1000100 k
b1000100 !"
b1000100 )"
b1000100 B"
1$
#185
0$
#190
b1011000 d
b1011000 '"
b1011000 3"
b1011000 9"
b1011000 #
b1011000 *
b1011000 5
b1011000 n
b1011000 w
b1011000 2"
b1011000 ?"
b1011000 y
b1011000 j
b1011000 &"
b1011000 ("
1,"
0,
1/
b100 b
b100 t
b100 >"
b1 -
b1 :
b1 W
b1 `
b10 3
b10 =
b10 X
b10 _
b10 z
14
09
1Y
0Z
1;
bx !
bx &
bx +
bx a
bx :"
bx <"
bx A"
b0 7
b0 @
b0 [
b0 ^
b0 p
b110100010 ]
b100 m
b100 |
b100 ="
b1 f
b1 1"
b1 7"
b1111 g
b1111 -"
b1111 6"
b10 U
b100000 T
b0 V
b1 {
b0 8"
b0 /"
b1 ."
b0 *"
b11101010000000000000 8
b11101010000000000000000000000001 )
b11101010000000000000000000000001 2
b11101010000000000000000000000001 l
b11101010000000000000000000000001 C"
b1010100 c
b1010100 u
b1010100 ;"
b1010100 h
b1010100 $"
b1010100 5"
b1010000 i
b1010000 ~
b1010000 ""
b1010000 %"
b1001100 (
b1001100 0
b1001100 k
b1001100 !"
b1001100 )"
b1001100 B"
1$
#195
0$
#200
b1100100 #
b1100100 *
b1100100 5
b1100100 n
b1100100 w
b1100100 2"
b1100100 ?"
b1100100 y
b0 g
b0 -"
b0 6"
b1011100 j
b1011100 &"
b1011100 ("
0/
0,"
10"
bx d
bx '"
bx 3"
bx 9"
1"
0;
b10 -
b10 :
b10 W
b10 `
b1 3
b1 =
b1 X
b1 _
b1 z
11
1<
0Y
b1100100 b
b1100100 t
b1100100 >"
b11111111111111111111111111111110 !
b11111111111111111111111111111110 &
b11111111111111111111111111111110 +
b11111111111111111111111111111110 a
b11111111111111111111111111111110 :"
b11111111111111111111111111111110 <"
b11111111111111111111111111111110 A"
b1001110100 ]
b1100100 m
b1100100 |
b1100100 ="
b10 f
b10 1"
b10 7"
b1 U
b11000 T
b10 V
b100000000010000001100100 {
b10 8"
b10 /"
b100 ."
b11100101100000000010 8
b11100101100000000010000001100100 )
b11100101100000000010000001100100 2
b11100101100000000010000001100100 l
b11100101100000000010000001100100 C"
b0 c
b0 u
b0 ;"
b1100000 h
b1100000 $"
b1100000 5"
b1011100 i
b1011100 ~
b1011100 ""
b1011100 %"
b1011000 (
b1011000 0
b1011000 k
b1011000 !"
b1011000 )"
b1011000 B"
1$
